SPRi FPGA/spr_accel_axi/sim/dump.vcd
$date
	Mon Jun 29 01:28:26 2026
$end
$version
	ModelSim Version 2020.1
$end
$timescale
	1ps
$end

$scope module tb_spr_accel_axi $end
$var parameter 32 ! C_S_AXI_DATA_WIDTH $end
$var parameter 32 " C_S_AXI_ADDR_WIDTH $end
$var parameter 32 # PIXEL_WIDTH $end
$var parameter 32 $ IMAGE_WIDTH $end
$var parameter 32 % ADDR_WIDTH $end
$var parameter 32 & ACC_WIDTH $end
$var parameter 32 ' DEN_WIDTH $end
$var parameter 32 ( CLK_PERIOD $end
$var parameter 5 ) ADDR_CTRL $end
$var parameter 5 * ADDR_STATUS $end
$var parameter 5 + ADDR_P_MIN $end
$var parameter 5 , ADDR_DBG_NUM $end
$var parameter 5 - ADDR_DBG_DEN $end
$var parameter 5 . ADDR_IRQ_CTRL $end
$var reg 1 / aclk $end
$var reg 1 0 aresetn $end
$var reg 5 1 awaddr [4:0] $end
$var reg 3 2 awprot [2:0] $end
$var reg 1 3 awvalid $end
$var wire 1 4 awready $end
$var reg 32 5 wdata [31:0] $end
$var reg 4 6 wstrb [3:0] $end
$var reg 1 7 wvalid $end
$var wire 1 8 wready $end
$var wire 1 9 bresp [1] $end
$var wire 1 : bresp [0] $end
$var wire 1 ; bvalid $end
$var reg 1 < bready $end
$var reg 5 = araddr [4:0] $end
$var reg 3 > arprot [2:0] $end
$var reg 1 ? arvalid $end
$var wire 1 @ arready $end
$var wire 1 A rdata [31] $end
$var wire 1 B rdata [30] $end
$var wire 1 C rdata [29] $end
$var wire 1 D rdata [28] $end
$var wire 1 E rdata [27] $end
$var wire 1 F rdata [26] $end
$var wire 1 G rdata [25] $end
$var wire 1 H rdata [24] $end
$var wire 1 I rdata [23] $end
$var wire 1 J rdata [22] $end
$var wire 1 K rdata [21] $end
$var wire 1 L rdata [20] $end
$var wire 1 M rdata [19] $end
$var wire 1 N rdata [18] $end
$var wire 1 O rdata [17] $end
$var wire 1 P rdata [16] $end
$var wire 1 Q rdata [15] $end
$var wire 1 R rdata [14] $end
$var wire 1 S rdata [13] $end
$var wire 1 T rdata [12] $end
$var wire 1 U rdata [11] $end
$var wire 1 V rdata [10] $end
$var wire 1 W rdata [9] $end
$var wire 1 X rdata [8] $end
$var wire 1 Y rdata [7] $end
$var wire 1 Z rdata [6] $end
$var wire 1 [ rdata [5] $end
$var wire 1 \ rdata [4] $end
$var wire 1 ] rdata [3] $end
$var wire 1 ^ rdata [2] $end
$var wire 1 _ rdata [1] $end
$var wire 1 ` rdata [0] $end
$var wire 1 a rresp [1] $end
$var wire 1 b rresp [0] $end
$var wire 1 c rvalid $end
$var reg 1 d rready $end
$var reg 12 e current_pixel [11:0] $end
$var reg 12 f ref_pixel [11:0] $end
$var reg 1 g valid_in $end
$var wire 1 h ready_out $end
$var wire 1 i irq $end
$var integer 32 j i $end
$var integer 32 k pass_count $end
$var integer 32 l fail_count $end
$var reg 32 m rd [31:0] $end

$scope task axi_write $end
$var reg 5 n addr [4:0] $end
$var reg 32 o data [31:0] $end
$upscope $end

$scope task axi_read $end
$var reg 5 p addr [4:0] $end
$var reg 32 q data [31:0] $end
$upscope $end

$scope task stream_spike_frame $end
$var reg 10 r spike_pos [9:0] $end
$var reg 12 s spike_depth [11:0] $end
$var integer 32 t p $end
$upscope $end

$scope task wait_done $end
$var reg 32 u stat [31:0] $end
$upscope $end

$scope task check $end
$var reg 256 v label [255:0] $end
$var reg 32 w actual [31:0] $end
$var reg 32 x expected [31:0] $end
$upscope $end

$scope module dut $end
$var parameter 32 y C_S_AXI_DATA_WIDTH $end
$var parameter 32 z C_S_AXI_ADDR_WIDTH $end
$var parameter 32 { PIXEL_WIDTH $end
$var parameter 32 | IMAGE_WIDTH $end
$var parameter 32 } ADDR_WIDTH $end
$var parameter 32 ~ ACC_WIDTH $end
$var parameter 32 !! DEN_WIDTH $end
$var parameter 3 "! REG_CTRL $end
$var parameter 3 #! REG_STATUS $end
$var parameter 3 $! REG_P_MIN $end
$var parameter 3 %! REG_DBG_NUM $end
$var parameter 3 &! REG_DBG_DEN $end
$var parameter 3 '! REG_IRQ_CTRL $end
$var wire 1 (! S_AXI_ACLK $end
$var wire 1 )! S_AXI_ARESETN $end
$var wire 1 *! S_AXI_AWADDR [4] $end
$var wire 1 +! S_AXI_AWADDR [3] $end
$var wire 1 ,! S_AXI_AWADDR [2] $end
$var wire 1 -! S_AXI_AWADDR [1] $end
$var wire 1 .! S_AXI_AWADDR [0] $end
$var wire 1 /! S_AXI_AWPROT [2] $end
$var wire 1 0! S_AXI_AWPROT [1] $end
$var wire 1 1! S_AXI_AWPROT [0] $end
$var wire 1 2! S_AXI_AWVALID $end
$var wire 1 4 S_AXI_AWREADY $end
$var wire 1 3! S_AXI_WDATA [31] $end
$var wire 1 4! S_AXI_WDATA [30] $end
$var wire 1 5! S_AXI_WDATA [29] $end
$var wire 1 6! S_AXI_WDATA [28] $end
$var wire 1 7! S_AXI_WDATA [27] $end
$var wire 1 8! S_AXI_WDATA [26] $end
$var wire 1 9! S_AXI_WDATA [25] $end
$var wire 1 :! S_AXI_WDATA [24] $end
$var wire 1 ;! S_AXI_WDATA [23] $end
$var wire 1 <! S_AXI_WDATA [22] $end
$var wire 1 =! S_AXI_WDATA [21] $end
$var wire 1 >! S_AXI_WDATA [20] $end
$var wire 1 ?! S_AXI_WDATA [19] $end
$var wire 1 @! S_AXI_WDATA [18] $end
$var wire 1 A! S_AXI_WDATA [17] $end
$var wire 1 B! S_AXI_WDATA [16] $end
$var wire 1 C! S_AXI_WDATA [15] $end
$var wire 1 D! S_AXI_WDATA [14] $end
$var wire 1 E! S_AXI_WDATA [13] $end
$var wire 1 F! S_AXI_WDATA [12] $end
$var wire 1 G! S_AXI_WDATA [11] $end
$var wire 1 H! S_AXI_WDATA [10] $end
$var wire 1 I! S_AXI_WDATA [9] $end
$var wire 1 J! S_AXI_WDATA [8] $end
$var wire 1 K! S_AXI_WDATA [7] $end
$var wire 1 L! S_AXI_WDATA [6] $end
$var wire 1 M! S_AXI_WDATA [5] $end
$var wire 1 N! S_AXI_WDATA [4] $end
$var wire 1 O! S_AXI_WDATA [3] $end
$var wire 1 P! S_AXI_WDATA [2] $end
$var wire 1 Q! S_AXI_WDATA [1] $end
$var wire 1 R! S_AXI_WDATA [0] $end
$var wire 1 S! S_AXI_WSTRB [3] $end
$var wire 1 T! S_AXI_WSTRB [2] $end
$var wire 1 U! S_AXI_WSTRB [1] $end
$var wire 1 V! S_AXI_WSTRB [0] $end
$var wire 1 W! S_AXI_WVALID $end
$var wire 1 8 S_AXI_WREADY $end
$var wire 1 9 S_AXI_BRESP [1] $end
$var wire 1 : S_AXI_BRESP [0] $end
$var wire 1 ; S_AXI_BVALID $end
$var wire 1 X! S_AXI_BREADY $end
$var wire 1 Y! S_AXI_ARADDR [4] $end
$var wire 1 Z! S_AXI_ARADDR [3] $end
$var wire 1 [! S_AXI_ARADDR [2] $end
$var wire 1 \! S_AXI_ARADDR [1] $end
$var wire 1 ]! S_AXI_ARADDR [0] $end
$var wire 1 ^! S_AXI_ARPROT [2] $end
$var wire 1 _! S_AXI_ARPROT [1] $end
$var wire 1 `! S_AXI_ARPROT [0] $end
$var wire 1 a! S_AXI_ARVALID $end
$var wire 1 @ S_AXI_ARREADY $end
$var wire 1 A S_AXI_RDATA [31] $end
$var wire 1 B S_AXI_RDATA [30] $end
$var wire 1 C S_AXI_RDATA [29] $end
$var wire 1 D S_AXI_RDATA [28] $end
$var wire 1 E S_AXI_RDATA [27] $end
$var wire 1 F S_AXI_RDATA [26] $end
$var wire 1 G S_AXI_RDATA [25] $end
$var wire 1 H S_AXI_RDATA [24] $end
$var wire 1 I S_AXI_RDATA [23] $end
$var wire 1 J S_AXI_RDATA [22] $end
$var wire 1 K S_AXI_RDATA [21] $end
$var wire 1 L S_AXI_RDATA [20] $end
$var wire 1 M S_AXI_RDATA [19] $end
$var wire 1 N S_AXI_RDATA [18] $end
$var wire 1 O S_AXI_RDATA [17] $end
$var wire 1 P S_AXI_RDATA [16] $end
$var wire 1 Q S_AXI_RDATA [15] $end
$var wire 1 R S_AXI_RDATA [14] $end
$var wire 1 S S_AXI_RDATA [13] $end
$var wire 1 T S_AXI_RDATA [12] $end
$var wire 1 U S_AXI_RDATA [11] $end
$var wire 1 V S_AXI_RDATA [10] $end
$var wire 1 W S_AXI_RDATA [9] $end
$var wire 1 X S_AXI_RDATA [8] $end
$var wire 1 Y S_AXI_RDATA [7] $end
$var wire 1 Z S_AXI_RDATA [6] $end
$var wire 1 [ S_AXI_RDATA [5] $end
$var wire 1 \ S_AXI_RDATA [4] $end
$var wire 1 ] S_AXI_RDATA [3] $end
$var wire 1 ^ S_AXI_RDATA [2] $end
$var wire 1 _ S_AXI_RDATA [1] $end
$var wire 1 ` S_AXI_RDATA [0] $end
$var wire 1 a S_AXI_RRESP [1] $end
$var wire 1 b S_AXI_RRESP [0] $end
$var wire 1 c S_AXI_RVALID $end
$var wire 1 b! S_AXI_RREADY $end
$var wire 1 c! current_pixel [11] $end
$var wire 1 d! current_pixel [10] $end
$var wire 1 e! current_pixel [9] $end
$var wire 1 f! current_pixel [8] $end
$var wire 1 g! current_pixel [7] $end
$var wire 1 h! current_pixel [6] $end
$var wire 1 i! current_pixel [5] $end
$var wire 1 j! current_pixel [4] $end
$var wire 1 k! current_pixel [3] $end
$var wire 1 l! current_pixel [2] $end
$var wire 1 m! current_pixel [1] $end
$var wire 1 n! current_pixel [0] $end
$var wire 1 o! ref_pixel [11] $end
$var wire 1 p! ref_pixel [10] $end
$var wire 1 q! ref_pixel [9] $end
$var wire 1 r! ref_pixel [8] $end
$var wire 1 s! ref_pixel [7] $end
$var wire 1 t! ref_pixel [6] $end
$var wire 1 u! ref_pixel [5] $end
$var wire 1 v! ref_pixel [4] $end
$var wire 1 w! ref_pixel [3] $end
$var wire 1 x! ref_pixel [2] $end
$var wire 1 y! ref_pixel [1] $end
$var wire 1 z! ref_pixel [0] $end
$var wire 1 {! valid_in $end
$var wire 1 h ready_out $end
$var wire 1 i irq $end
$var reg 1 |! axi_awready $end
$var reg 1 }! axi_wready $end
$var reg 1 ~! axi_bvalid $end
$var reg 1 !" axi_arready $end
$var reg 1 "" axi_rvalid $end
$var reg 32 #" axi_rdata [31:0] $end
$var reg 5 $" axi_awaddr [4:0] $end
$var reg 5 %" axi_araddr [4:0] $end
$var reg 1 &" start_frame $end
$var reg 1 '" done_latched $end
$var reg 1 (" irq_enable $end
$var reg 1 )" irq_pending $end
$var wire 1 *" pipe_p_min [9] $end
$var wire 1 +" pipe_p_min [8] $end
$var wire 1 ," pipe_p_min [7] $end
$var wire 1 -" pipe_p_min [6] $end
$var wire 1 ." pipe_p_min [5] $end
$var wire 1 /" pipe_p_min [4] $end
$var wire 1 0" pipe_p_min [3] $end
$var wire 1 1" pipe_p_min [2] $end
$var wire 1 2" pipe_p_min [1] $end
$var wire 1 3" pipe_p_min [0] $end
$var wire 1 4" pipe_done $end
$var wire 1 5" pipe_busy $end
$var wire 1 6" pipe_diff_pixel [11] $end
$var wire 1 7" pipe_diff_pixel [10] $end
$var wire 1 8" pipe_diff_pixel [9] $end
$var wire 1 9" pipe_diff_pixel [8] $end
$var wire 1 :" pipe_diff_pixel [7] $end
$var wire 1 ;" pipe_diff_pixel [6] $end
$var wire 1 <" pipe_diff_pixel [5] $end
$var wire 1 =" pipe_diff_pixel [4] $end
$var wire 1 >" pipe_diff_pixel [3] $end
$var wire 1 ?" pipe_diff_pixel [2] $end
$var wire 1 @" pipe_diff_pixel [1] $end
$var wire 1 A" pipe_diff_pixel [0] $end
$var wire 1 B" pipe_valid_out $end
$var wire 1 C" pipe_overflow $end
$var wire 1 D" pipe_dbg_num [31] $end
$var wire 1 E" pipe_dbg_num [30] $end
$var wire 1 F" pipe_dbg_num [29] $end
$var wire 1 G" pipe_dbg_num [28] $end
$var wire 1 H" pipe_dbg_num [27] $end
$var wire 1 I" pipe_dbg_num [26] $end
$var wire 1 J" pipe_dbg_num [25] $end
$var wire 1 K" pipe_dbg_num [24] $end
$var wire 1 L" pipe_dbg_num [23] $end
$var wire 1 M" pipe_dbg_num [22] $end
$var wire 1 N" pipe_dbg_num [21] $end
$var wire 1 O" pipe_dbg_num [20] $end
$var wire 1 P" pipe_dbg_num [19] $end
$var wire 1 Q" pipe_dbg_num [18] $end
$var wire 1 R" pipe_dbg_num [17] $end
$var wire 1 S" pipe_dbg_num [16] $end
$var wire 1 T" pipe_dbg_num [15] $end
$var wire 1 U" pipe_dbg_num [14] $end
$var wire 1 V" pipe_dbg_num [13] $end
$var wire 1 W" pipe_dbg_num [12] $end
$var wire 1 X" pipe_dbg_num [11] $end
$var wire 1 Y" pipe_dbg_num [10] $end
$var wire 1 Z" pipe_dbg_num [9] $end
$var wire 1 [" pipe_dbg_num [8] $end
$var wire 1 \" pipe_dbg_num [7] $end
$var wire 1 ]" pipe_dbg_num [6] $end
$var wire 1 ^" pipe_dbg_num [5] $end
$var wire 1 _" pipe_dbg_num [4] $end
$var wire 1 `" pipe_dbg_num [3] $end
$var wire 1 a" pipe_dbg_num [2] $end
$var wire 1 b" pipe_dbg_num [1] $end
$var wire 1 c" pipe_dbg_num [0] $end
$var wire 1 d" pipe_dbg_den [21] $end
$var wire 1 e" pipe_dbg_den [20] $end
$var wire 1 f" pipe_dbg_den [19] $end
$var wire 1 g" pipe_dbg_den [18] $end
$var wire 1 h" pipe_dbg_den [17] $end
$var wire 1 i" pipe_dbg_den [16] $end
$var wire 1 j" pipe_dbg_den [15] $end
$var wire 1 k" pipe_dbg_den [14] $end
$var wire 1 l" pipe_dbg_den [13] $end
$var wire 1 m" pipe_dbg_den [12] $end
$var wire 1 n" pipe_dbg_den [11] $end
$var wire 1 o" pipe_dbg_den [10] $end
$var wire 1 p" pipe_dbg_den [9] $end
$var wire 1 q" pipe_dbg_den [8] $end
$var wire 1 r" pipe_dbg_den [7] $end
$var wire 1 s" pipe_dbg_den [6] $end
$var wire 1 t" pipe_dbg_den [5] $end
$var wire 1 u" pipe_dbg_den [4] $end
$var wire 1 v" pipe_dbg_den [3] $end
$var wire 1 w" pipe_dbg_den [2] $end
$var wire 1 x" pipe_dbg_den [1] $end
$var wire 1 y" pipe_dbg_den [0] $end
$var wire 1 z" wr_en $end

$scope module u_pipeline $end
$var parameter 32 {" PIXEL_WIDTH $end
$var parameter 32 |" IMAGE_WIDTH $end
$var parameter 32 }" ADDR_WIDTH $end
$var parameter 32 ~" ACC_WIDTH $end
$var parameter 32 !# DEN_WIDTH $end
$var wire 1 (! clk $end
$var wire 1 )! rst_n $end
$var wire 1 "# start_frame $end
$var wire 1 c! current_pixel [11] $end
$var wire 1 d! current_pixel [10] $end
$var wire 1 e! current_pixel [9] $end
$var wire 1 f! current_pixel [8] $end
$var wire 1 g! current_pixel [7] $end
$var wire 1 h! current_pixel [6] $end
$var wire 1 i! current_pixel [5] $end
$var wire 1 j! current_pixel [4] $end
$var wire 1 k! current_pixel [3] $end
$var wire 1 l! current_pixel [2] $end
$var wire 1 m! current_pixel [1] $end
$var wire 1 n! current_pixel [0] $end
$var wire 1 o! ref_pixel [11] $end
$var wire 1 p! ref_pixel [10] $end
$var wire 1 q! ref_pixel [9] $end
$var wire 1 r! ref_pixel [8] $end
$var wire 1 s! ref_pixel [7] $end
$var wire 1 t! ref_pixel [6] $end
$var wire 1 u! ref_pixel [5] $end
$var wire 1 v! ref_pixel [4] $end
$var wire 1 w! ref_pixel [3] $end
$var wire 1 x! ref_pixel [2] $end
$var wire 1 y! ref_pixel [1] $end
$var wire 1 z! ref_pixel [0] $end
$var wire 1 {! valid_in $end
$var wire 1 h ready_out $end
$var wire 1 *" p_min [9] $end
$var wire 1 +" p_min [8] $end
$var wire 1 ," p_min [7] $end
$var wire 1 -" p_min [6] $end
$var wire 1 ." p_min [5] $end
$var wire 1 /" p_min [4] $end
$var wire 1 0" p_min [3] $end
$var wire 1 1" p_min [2] $end
$var wire 1 2" p_min [1] $end
$var wire 1 3" p_min [0] $end
$var wire 1 4" done $end
$var wire 1 5" busy $end
$var wire 1 6" diff_pixel [11] $end
$var wire 1 7" diff_pixel [10] $end
$var wire 1 8" diff_pixel [9] $end
$var wire 1 9" diff_pixel [8] $end
$var wire 1 :" diff_pixel [7] $end
$var wire 1 ;" diff_pixel [6] $end
$var wire 1 <" diff_pixel [5] $end
$var wire 1 =" diff_pixel [4] $end
$var wire 1 >" diff_pixel [3] $end
$var wire 1 ?" diff_pixel [2] $end
$var wire 1 @" diff_pixel [1] $end
$var wire 1 A" diff_pixel [0] $end
$var wire 1 B" valid_out_pixel $end
$var wire 1 C" overflow_flag $end
$var wire 1 D" dbg_numerator [31] $end
$var wire 1 E" dbg_numerator [30] $end
$var wire 1 F" dbg_numerator [29] $end
$var wire 1 G" dbg_numerator [28] $end
$var wire 1 H" dbg_numerator [27] $end
$var wire 1 I" dbg_numerator [26] $end
$var wire 1 J" dbg_numerator [25] $end
$var wire 1 K" dbg_numerator [24] $end
$var wire 1 L" dbg_numerator [23] $end
$var wire 1 M" dbg_numerator [22] $end
$var wire 1 N" dbg_numerator [21] $end
$var wire 1 O" dbg_numerator [20] $end
$var wire 1 P" dbg_numerator [19] $end
$var wire 1 Q" dbg_numerator [18] $end
$var wire 1 R" dbg_numerator [17] $end
$var wire 1 S" dbg_numerator [16] $end
$var wire 1 T" dbg_numerator [15] $end
$var wire 1 U" dbg_numerator [14] $end
$var wire 1 V" dbg_numerator [13] $end
$var wire 1 W" dbg_numerator [12] $end
$var wire 1 X" dbg_numerator [11] $end
$var wire 1 Y" dbg_numerator [10] $end
$var wire 1 Z" dbg_numerator [9] $end
$var wire 1 [" dbg_numerator [8] $end
$var wire 1 \" dbg_numerator [7] $end
$var wire 1 ]" dbg_numerator [6] $end
$var wire 1 ^" dbg_numerator [5] $end
$var wire 1 _" dbg_numerator [4] $end
$var wire 1 `" dbg_numerator [3] $end
$var wire 1 a" dbg_numerator [2] $end
$var wire 1 b" dbg_numerator [1] $end
$var wire 1 c" dbg_numerator [0] $end
$var wire 1 d" dbg_denominator [21] $end
$var wire 1 e" dbg_denominator [20] $end
$var wire 1 f" dbg_denominator [19] $end
$var wire 1 g" dbg_denominator [18] $end
$var wire 1 h" dbg_denominator [17] $end
$var wire 1 i" dbg_denominator [16] $end
$var wire 1 j" dbg_denominator [15] $end
$var wire 1 k" dbg_denominator [14] $end
$var wire 1 l" dbg_denominator [13] $end
$var wire 1 m" dbg_denominator [12] $end
$var wire 1 n" dbg_denominator [11] $end
$var wire 1 o" dbg_denominator [10] $end
$var wire 1 p" dbg_denominator [9] $end
$var wire 1 q" dbg_denominator [8] $end
$var wire 1 r" dbg_denominator [7] $end
$var wire 1 s" dbg_denominator [6] $end
$var wire 1 t" dbg_denominator [5] $end
$var wire 1 u" dbg_denominator [4] $end
$var wire 1 v" dbg_denominator [3] $end
$var wire 1 w" dbg_denominator [2] $end
$var wire 1 x" dbg_denominator [1] $end
$var wire 1 y" dbg_denominator [0] $end
$var wire 1 ## bg_dip_depth [11] $end
$var wire 1 $# bg_dip_depth [10] $end
$var wire 1 %# bg_dip_depth [9] $end
$var wire 1 &# bg_dip_depth [8] $end
$var wire 1 '# bg_dip_depth [7] $end
$var wire 1 (# bg_dip_depth [6] $end
$var wire 1 )# bg_dip_depth [5] $end
$var wire 1 *# bg_dip_depth [4] $end
$var wire 1 +# bg_dip_depth [3] $end
$var wire 1 ,# bg_dip_depth [2] $end
$var wire 1 -# bg_dip_depth [1] $end
$var wire 1 .# bg_dip_depth [0] $end
$var wire 1 /# bg_valid_out $end

$scope module u_bg_sub $end
$var parameter 32 0# PIXEL_WIDTH $end
$var parameter 32 1# IMAGE_WIDTH $end
$var wire 1 (! clk $end
$var wire 1 )! rst_n $end
$var wire 1 c! current_pixel [11] $end
$var wire 1 d! current_pixel [10] $end
$var wire 1 e! current_pixel [9] $end
$var wire 1 f! current_pixel [8] $end
$var wire 1 g! current_pixel [7] $end
$var wire 1 h! current_pixel [6] $end
$var wire 1 i! current_pixel [5] $end
$var wire 1 j! current_pixel [4] $end
$var wire 1 k! current_pixel [3] $end
$var wire 1 l! current_pixel [2] $end
$var wire 1 m! current_pixel [1] $end
$var wire 1 n! current_pixel [0] $end
$var wire 1 o! ref_pixel [11] $end
$var wire 1 p! ref_pixel [10] $end
$var wire 1 q! ref_pixel [9] $end
$var wire 1 r! ref_pixel [8] $end
$var wire 1 s! ref_pixel [7] $end
$var wire 1 t! ref_pixel [6] $end
$var wire 1 u! ref_pixel [5] $end
$var wire 1 v! ref_pixel [4] $end
$var wire 1 w! ref_pixel [3] $end
$var wire 1 x! ref_pixel [2] $end
$var wire 1 y! ref_pixel [1] $end
$var wire 1 z! ref_pixel [0] $end
$var wire 1 {! valid_in $end
$var wire 1 h ready_out $end
$var reg 12 2# diff_pixel [11:0] $end
$var reg 1 3# valid_out $end
$var reg 1 4# overflow_flag $end
$var reg 12 5# dip_depth [11:0] $end
$var wire 1 6# diff_raw [12] $end
$var wire 1 7# diff_raw [11] $end
$var wire 1 8# diff_raw [10] $end
$var wire 1 9# diff_raw [9] $end
$var wire 1 :# diff_raw [8] $end
$var wire 1 ;# diff_raw [7] $end
$var wire 1 <# diff_raw [6] $end
$var wire 1 =# diff_raw [5] $end
$var wire 1 ># diff_raw [4] $end
$var wire 1 ?# diff_raw [3] $end
$var wire 1 @# diff_raw [2] $end
$var wire 1 A# diff_raw [1] $end
$var wire 1 B# diff_raw [0] $end
$upscope $end

$scope module u_centroid $end
$var parameter 32 C# PIXEL_WIDTH $end
$var parameter 32 D# IMAGE_WIDTH $end
$var parameter 32 E# ADDR_WIDTH $end
$var parameter 32 F# ACC_WIDTH $end
$var parameter 32 G# DEN_WIDTH $end
$var parameter 2 H# IDLE $end
$var parameter 2 I# ACCUMULATE $end
$var parameter 2 J# DIVIDE $end
$var parameter 2 K# DONE_ST $end
$var wire 1 (! clk $end
$var wire 1 )! rst_n $end
$var wire 1 "# start $end
$var wire 1 ## dip_depth [11] $end
$var wire 1 $# dip_depth [10] $end
$var wire 1 %# dip_depth [9] $end
$var wire 1 &# dip_depth [8] $end
$var wire 1 '# dip_depth [7] $end
$var wire 1 (# dip_depth [6] $end
$var wire 1 )# dip_depth [5] $end
$var wire 1 *# dip_depth [4] $end
$var wire 1 +# dip_depth [3] $end
$var wire 1 ,# dip_depth [2] $end
$var wire 1 -# dip_depth [1] $end
$var wire 1 .# dip_depth [0] $end
$var wire 1 /# valid_in $end
$var reg 10 L# p_min [9:0] $end
$var reg 1 M# done $end
$var reg 1 N# busy $end
$var reg 32 O# dbg_numerator [31:0] $end
$var reg 22 P# dbg_denominator [21:0] $end
$var reg 2 Q# state [1:0] $end
$var reg 10 R# pixel_addr [9:0] $end
$var reg 32 S# numerator [31:0] $end
$var reg 22 T# denominator [21:0] $end
$var reg 10 U# pix_count [9:0] $end
$var wire 1 V# weight [11] $end
$var wire 1 W# weight [10] $end
$var wire 1 X# weight [9] $end
$var wire 1 Y# weight [8] $end
$var wire 1 Z# weight [7] $end
$var wire 1 [# weight [6] $end
$var wire 1 \# weight [5] $end
$var wire 1 ]# weight [4] $end
$var wire 1 ^# weight [3] $end
$var wire 1 _# weight [2] $end
$var wire 1 `# weight [1] $end
$var wire 1 a# weight [0] $end
$var reg 32 b# div_dividend [31:0] $end
$var reg 22 c# div_divisor [21:0] $end
$var reg 32 d# div_quotient [31:0] $end
$var reg 32 e# div_remainder [31:0] $end
$var reg 6 f# div_count [5:0] $end
$upscope $end
$upscope $end
$upscope $end
$upscope $end
$enddefinitions $end
#0
$dumpvars
0/
00
b0 1
b0 2
03
b0 5
b0 6
07
0<
b0 =
b0 >
0?
0d
b0 e
b0 f
0g
bx m
x|!
x}!
x~!
x!"
x""
bx #"
bx $"
bx %"
x&"
x'"
x("
x)"
b0 2#
03#
04#
b0 5#
b0 L#
0M#
0N#
b0 O#
b0 P#
b0 Q#
b0 R#
b0 S#
b0 T#
b0 U#
b0 b#
b0 c#
b0 d#
b0 e#
b0 f#
bx n
bx o
bx p
bx q
bx r
bx s
bx u
bx v
bx w
bx x
b100000 !
b101 "
b1100 #
b1000000 $
b1010 %
b100000 &
b10110 '
b10100 (
b0 )
b100 *
b1000 +
b1100 ,
b10000 -
b10100 .
b100000 y
b101 z
b1100 {
b1000000 |
b1010 }
b100000 ~
b10110 !!
b0 "!
b1 #!
b10 $!
b11 %!
b100 &!
b101 '!
b1100 {"
b1000000 |"
b1010 }"
b100000 ~"
b10110 !#
b1100 0#
b1000000 1#
b1100 C#
b1000000 D#
b1010 E#
b100000 F#
b10110 G#
b0 H#
b1 I#
b10 J#
b11 K#
bx j
b0 k
b0 l
bx t
x4
x8
0:
09
x;
x@
x`
x_
x^
x]
x\
x[
xZ
xY
xX
xW
xV
xU
xT
xS
xR
xQ
xP
xO
xN
xM
xL
xK
xJ
xI
xH
xG
xF
xE
xD
xC
xB
xA
0b
0a
xc
1h
xi
03"
02"
01"
00"
0/"
0."
0-"
0,"
0+"
0*"
04"
05"
0A"
0@"
0?"
0>"
0="
0<"
0;"
0:"
09"
08"
07"
06"
0B"
0C"
0c"
0b"
0a"
0`"
0_"
0^"
0]"
0\"
0["
0Z"
0Y"
0X"
0W"
0V"
0U"
0T"
0S"
0R"
0Q"
0P"
0O"
0N"
0M"
0L"
0K"
0J"
0I"
0H"
0G"
0F"
0E"
0D"
0y"
0x"
0w"
0v"
0u"
0t"
0s"
0r"
0q"
0p"
0o"
0n"
0m"
0l"
0k"
0j"
0i"
0h"
0g"
0f"
0e"
0d"
0z"
0.#
0-#
0,#
0+#
0*#
0)#
0(#
0'#
0&#
0%#
0$#
0##
0/#
0B#
0A#
0@#
0?#
0>#
0=#
0<#
0;#
0:#
09#
08#
07#
06#
0a#
0`#
0_#
0^#
0]#
0\#
0[#
0Z#
0Y#
0X#
0W#
0V#
0{!
0z!
0y!
0x!
0w!
0v!
0u!
0t!
0s!
0r!
0q!
0p!
0o!
0n!
0m!
0l!
0k!
0j!
0i!
0h!
0g!
0f!
0e!
0d!
0c!
0b!
0a!
0`!
0_!
0^!
0]!
0\!
0[!
0Z!
0Y!
0X!
0W!
0V!
0U!
0T!
0S!
0R!
0Q!
0P!
0O!
0N!
0M!
0L!
0K!
0J!
0I!
0H!
0G!
0F!
0E!
0D!
0C!
0B!
0A!
0@!
0?!
0>!
0=!
0<!
0;!
0:!
09!
08!
07!
06!
05!
04!
03!
02!
01!
00!
0/!
0.!
0-!
0,!
0+!
0*!
0)!
0(!
x"#
$end
#10000
1/
1(!
0|!
b0 $"
0}!
0~!
0&"
0'"
0("
0)"
0!"
b0 %"
0""
b0 #"
0i
04
08
0;
0"#
0@
0c
0`
0_
0^
0]
0\
0[
0Z
0Y
0X
0W
0V
0U
0T
0S
0R
0Q
0P
0O
0N
0M
0L
0K
0J
0I
0H
0G
0F
0E
0D
0C
0B
0A
#20000
0/
0(!
#30000
1/
1(!
#40000
0/
0(!
#50000
1/
1(!
#60000
0/
0(!
#70000
1/
1(!
#80000
0/
0(!
#90000
1/
1(!
10
1)!
#100000
0/
0(!
#110000
1/
1(!
#120000
0/
0(!
#130000
1/
1(!
b0 p
#140000
0/
0(!
#150000
1/
1(!
#151000
1?
1d
1a!
1b!
#160000
0/
0(!
#170000
1/
1(!
1!"
1@
#180000
0/
0(!
#190000
1/
1(!
0!"
1""
0@
1c
#191000
0?
b0 q
0a!
#200000
0/
0(!
#210000
1/
1(!
0""
0c
#211000
0d
b0 m
b1000011010101000101001001001100001000000111001001100101011100110110010101110100 v
b0 w
b0 x
b1 k
b100 p
0b!
#220000
0/
0(!
#230000
1/
1(!
#231000
b100 =
1?
1d
1[!
1a!
1b!
#240000
0/
0(!
#250000
1/
1(!
1!"
b100 %"
1@
#260000
0/
0(!
#270000
1/
1(!
0!"
1""
0@
1c
#271000
0?
0a!
#280000
0/
0(!
#290000
1/
1(!
0""
0c
#291000
0d
b10100110101010001000001010101000101010101010011001000000111001001100101011100110110010101110100 v
b10 k
b1000 p
0b!
#300000
0/
0(!
#310000
1/
1(!
#311000
b1000 =
1?
1d
0[!
1Z!
1a!
1b!
#320000
0/
0(!
#330000
1/
1(!
1!"
b1000 %"
1@
#340000
0/
0(!
#350000
1/
1(!
0!"
1""
0@
1c
#351000
0?
0a!
#360000
0/
0(!
#370000
1/
1(!
0""
0c
#371000
0d
b101000001011111010011010100100101001110001000000111001001100101011100110110010101110100 v
b11 k
b10100 p
0b!
#380000
0/
0(!
#390000
1/
1(!
#391000
b10100 =
1?
1d
1[!
0Z!
1Y!
1a!
1b!
#400000
0/
0(!
#410000
1/
1(!
1!"
b10100 %"
1@
#420000
0/
0(!
#430000
1/
1(!
0!"
1""
0@
1c
#431000
0?
0a!
#440000
0/
0(!
#450000
1/
1(!
0""
0c
#451000
0d
b100100101010010010100010101111101000011010101000101001001001100001000000111001001100101011100110110010101110100 v
b100 k
b0 n
b1 o
0b!
#460000
0/
0(!
#470000
1/
1(!
#471000
13
b1 5
b1111 6
17
1<
12!
1V!
1U!
1T!
1S!
1R!
1W!
1X!
#480000
0/
0(!
#490000
1/
1(!
1|!
1}!
1z"
14
18
#500000
0/
0(!
#510000
1/
1(!
0|!
0}!
1~!
1&"
0z"
04
08
1;
1"#
#511000
03
07
02!
0W!
#520000
0/
0(!
#530000
1/
1(!
0~!
0&"
1N#
b1 Q#
0;
0"#
15"
#531000
0<
b100000 r
b1100100000 s
b0 t
0X!
#540000
0/
0(!
#550000
1/
1(!
